4,196,4.152410118609202864589078944
4,265,4.152410118609202864589078944
4,406,0.8384740342648808853876013472
196,4,4.152410118609202864589078944
196,265,0.3691031216541513657412514617
196,406,2.321928094887362451842588346
265,4,4.152410118609202864589078944
265,196,0.3691031216541513657412514617
265,406,0.1451205059304601532401617716
406,4,0.8384740342648808853876013472
406,196,2.321928094887362451842588346
406,265,0.1451205059304601532401617716
