10,129,1
10,159,1.111111111111111111111111111
10,226,0.25
129,10,1
129,159,0.3125
129,226,1
159,10,1.111111111111111111111111111
159,129,0.3125
159,226,0.1511111111111111111111111111
226,10,0.25
226,129,1
226,159,0.1511111111111111111111111111
