3,150,1
3,229,2
3,386,0.5
64,65,2
64,106,0.2222222222222222222222222222
64,150,0.25
65,64,2
65,106,0.5
65,150,1
106,64,0.2222222222222222222222222222
106,65,0.5
106,150,1
150,3,1
150,64,0.25
150,65,1
150,106,1
150,229,0.25
150,386,0.1111111111111111111111111111
229,3,2
229,150,0.25
229,386,2
386,3,0.5
386,150,0.1111111111111111111111111111
386,229,2
