34,159,2
34,283,0.5
34,368,0.125
159,34,2
159,283,2
159,368,0.2222222222222222222222222222
221,376,2
283,34,0.5
283,159,2
283,368,0.5
368,34,0.125
368,159,0.2222222222222222222222222222
368,283,0.5
376,221,2
