65,67,0.25
65,207,0.1111111111111111111111111111
65,218,1
65,374,0.0625
67,65,0.25
67,207,1
67,218,1
67,374,0.25
207,65,0.1111111111111111111111111111
207,67,1
207,218,0.25
207,374,1
218,65,1
218,67,1
218,207,0.25
218,374,0.1111111111111111111111111111
374,65,0.0625
374,67,0.25
374,207,1
374,218,0.1111111111111111111111111111
