34,196,0.2872180556356840405947361666
34,335,0.396240625180289051295325077
34,351,2.584962500721156365352625499
196,34,0.2872180556356840405947361666
196,335,1.584962500721156205181300308
196,351,0.6462406251802890913381563748
283,312,2.584962500721156365352625499
312,283,2.584962500721156365352625499
335,34,0.396240625180289051295325077
335,196,1.584962500721156205181300308
335,351,1.584962500721156205181300308
351,34,2.584962500721156365352625499
351,196,0.6462406251802890913381563748
351,335,1.584962500721156205181300308
