2,132,0.75
2,140,2
2,319,1.111111111111111111111111111
5,288,0.6842413985415516017081533072
5,319,1
5,378,4.321928094887362772185238728
71,123,0.5913253438763735879634736839
71,288,4.671206992707757808326610048
123,71,0.5913253438763735879634736839
123,288,4.671206992707757808326610048
132,2,0.75
132,140,4.321928094887362772185238728
132,319,0.2222222222222222222222222222
140,2,2
140,132,4.321928094887362772185238728
140,319,0.25
140,336,4.321928094887362772185238728
240,270,3.736965594166206246661288038
240,289,0.9342413985415515616653220095
240,319,1
270,240,3.736965594166206246661288038
270,289,5.321928094887362291671263155
283,286,1.330482023721840572917815789
283,319,2
286,283,1.330482023721840572917815789
286,319,2
288,5,0.6842413985415516017081533072
288,71,4.671206992707757808326610048
288,123,4.671206992707757808326610048
288,319,1
288,378,0.4152183993518006940734764487
289,240,0.9342413985415515616653220095
289,270,5.321928094887362291671263155
315,319,0.5
315,345,5.321928094887362291671263155
319,2,1.111111111111111111111111111
319,5,1
319,132,0.2222222222222222222222222222
319,140,0.25
319,240,1
319,283,2
319,286,2
319,288,1
319,315,0.5
319,345,0.2222222222222222222222222222
319,378,0.5
336,140,4.321928094887362772185238728
345,315,5.321928094887362291671263155
345,319,0.2222222222222222222222222222
378,5,4.321928094887362772185238728
378,288,0.4152183993518006940734764487
378,319,0.5
