4,32,0.5
4,271,0.2222222222222222222222222222
4,371,2
4,393,2
32,4,0.5
32,271,2
32,371,0.2222222222222222222222222222
32,393,2
90,99,0.125
90,161,2
90,189,0.5
90,211,0.2222222222222222222222222222
90,243,2
99,90,0.125
99,161,0.08
99,243,0.2222222222222222222222222222
161,90,2
161,99,0.08
161,189,2
161,211,0.5
161,243,0.5
189,90,0.5
189,161,2
189,211,2
189,243,0.2222222222222222222222222222
211,90,0.2222222222222222222222222222
211,161,0.5
211,189,2
211,243,0.125
243,90,2
243,99,0.2222222222222222222222222222
243,161,0.5
243,189,0.2222222222222222222222222222
243,211,0.125
271,4,0.2222222222222222222222222222
271,32,2
271,371,0.125
271,393,0.5
371,4,2
371,32,0.2222222222222222222222222222
371,271,0.125
371,393,0.5
393,4,2
393,32,2
393,271,0.5
393,371,0.5
