35,167,3
35,183,0.75
35,192,0.12
35,243,0.3333333333333333333333333333
35,256,3
35,305,0.3333333333333333333333333333
35,336,0.1875
35,358,0.75
35,409,0.1875
42,90,3
90,42,3
150,189,0.3333333333333333333333333333
150,393,3
167,35,3
167,183,3
167,192,0.1875
167,243,0.75
167,256,0.75
167,305,0.1875
167,336,0.3333333333333333333333333333
167,358,0.3333333333333333333333333333
167,409,0.12
183,35,0.75
183,167,3
183,192,0.3333333333333333333333333333
183,243,3
183,256,0.3333333333333333333333333333
183,305,0.12
183,336,0.75
183,358,0.1875
189,150,0.3333333333333333333333333333
189,393,0.75
192,35,0.12
192,167,0.1875
192,183,0.3333333333333333333333333333
192,243,0.75
192,336,3
225,372,3
243,35,0.3333333333333333333333333333
243,167,0.75
243,183,3
243,192,0.75
243,256,0.1875
243,336,3
243,358,0.12
256,35,3
256,167,0.75
256,183,0.3333333333333333333333333333
256,243,0.1875
256,305,0.75
256,336,0.12
256,358,3
256,409,0.3333333333333333333333333333
305,35,0.3333333333333333333333333333
305,167,0.1875
305,183,0.12
305,256,0.75
305,358,3
305,409,3
336,35,0.1875
336,167,0.3333333333333333333333333333
336,183,0.75
336,192,3
336,243,3
336,256,0.12
358,35,0.75
358,167,0.3333333333333333333333333333
358,183,0.1875
358,243,0.12
358,256,3
358,305,3
358,409,0.75
372,225,3
393,150,3
393,189,0.75
409,35,0.1875
409,167,0.12
409,256,0.3333333333333333333333333333
409,305,3
409,358,0.75
