11,72,0.125
11,142,2
11,231,2
11,232,0.5
11,339,0.08
11,351,0.2222222222222222222222222222
72,11,0.125
72,142,0.2222222222222222222222222222
72,231,0.08
72,232,0.5
72,339,2
72,351,2
142,11,2
142,72,0.2222222222222222222222222222
142,231,0.5
142,232,2
142,339,0.125
142,351,0.5
231,11,2
231,72,0.08
231,142,0.5
231,232,0.2222222222222222222222222222
231,351,0.125
232,11,0.5
232,72,0.5
232,142,2
232,231,0.2222222222222222222222222222
232,339,0.2222222222222222222222222222
232,351,2
339,11,0.08
339,72,2
339,142,0.125
339,232,0.2222222222222222222222222222
339,351,0.5
351,11,0.2222222222222222222222222222
351,72,2
351,142,0.5
351,231,0.125
351,232,2
351,339,0.5
