19,387,2.222222222222222222222222222
27,78,0.08
27,250,3.75
27,305,0.3333333333333333333333333333
78,27,0.08
78,154,2
78,197,2.222222222222222222222222222
78,250,0.3472222222222222222222222222
78,305,0.5
101,327,3
101,387,2
154,78,2
154,197,0.75
197,78,2.222222222222222222222222222
197,154,0.75
250,27,3.75
250,78,0.3472222222222222222222222222
250,305,3.75
305,27,0.3333333333333333333333333333
305,78,0.5
305,250,3.75
327,101,3
327,387,0.5
387,19,2.222222222222222222222222222
387,101,2
387,327,0.5
