54,67,1
54,189,0.5
67,54,1
67,189,1
67,194,1
67,270,0.25
67,387,1
189,54,0.5
189,67,1
194,67,1
194,270,2
194,387,0.5
270,67,0.25
270,194,2
270,387,0.2222222222222222222222222222
387,67,1
387,194,0.5
387,270,0.2222222222222222222222222222
