5,90,3.584962500721156205181300308
32,150,0.896240625180289051295325077
32,263,0.896240625180289051295325077
32,332,3.584962500721156205181300308
90,5,3.584962500721156205181300308
150,32,0.896240625180289051295325077
150,263,0.2240601562950722628238312692
150,332,3.983291667467951339090333676
152,183,3.584962500721156205181300308
152,393,3.584962500721156205181300308
183,152,3.584962500721156205181300308
183,393,0.896240625180289051295325077
263,32,0.896240625180289051295325077
263,150,0.2240601562950722628238312692
263,332,3.983291667467951339090333676
332,32,3.584962500721156205181300308
332,150,3.983291667467951339090333676
332,263,3.983291667467951339090333676
393,152,3.584962500721156205181300308
393,183,0.896240625180289051295325077
