27,270,2.584962500721156365352625499
71,78,2.584962500721156365352625499
71,331,2.584962500721156365352625499
78,71,2.584962500721156365352625499
78,331,0.6462406251802890913381563748
270,27,2.584962500721156365352625499
331,71,2.584962500721156365352625499
331,78,0.6462406251802890913381563748
