19,129,3.807354922057604095709991703
19,327,2.807354922057604255881316894
65,72,0.4230394357841782328566657448
65,265,0.9518387305144010239274979258
65,283,3.807354922057604095709991703
72,65,0.4230394357841782328566657448
72,265,3.807354922057604095709991703
72,283,0.9518387305144010239274979258
129,19,3.807354922057604095709991703
129,327,0.7018387305144010639703292235
265,65,0.9518387305144010239274979258
265,72,3.807354922057604095709991703
265,283,3.807354922057604095709991703
283,65,3.807354922057604095709991703
283,72,0.9518387305144010239274979258
283,265,3.807354922057604095709991703
327,19,2.807354922057604255881316894
327,129,0.7018387305144010639703292235
327,412,2.807354922057604255881316894
412,327,2.807354922057604255881316894
