4,65,1
4,254,1
65,4,1
65,159,0.1111111111111111111111111111
65,161,1
65,189,1
65,254,0.50
159,65,0.1111111111111111111111111111
159,161,0.125
159,189,0.5
159,254,1
161,65,1
161,159,0.125
161,189,0.5
161,254,0.1111111111111111111111111111
189,65,1
189,159,0.5
189,161,0.5
189,254,1
254,4,1
254,65,0.50
254,159,1
254,161,0.1111111111111111111111111111
254,189,1
