78,263,3
83,190,3
83,211,0.1875
83,302,2
83,345,0.3333333333333333333333333333
83,387,0.75
83,396,0.08
190,83,3
190,211,0.12
190,302,0.5
190,345,0.1875
190,387,0.3333333333333333333333333333
211,83,0.1875
211,190,0.12
211,302,0.2222222222222222222222222222
211,345,3
211,387,0.75
211,396,2
263,78,3
302,83,2
302,190,0.5
302,211,0.2222222222222222222222222222
302,345,0.5
302,387,2
302,396,0.0625
345,83,0.3333333333333333333333333333
345,190,0.1875
345,211,3
345,302,0.5
345,387,3
345,396,0.5
387,83,0.75
387,190,0.3333333333333333333333333333
387,211,0.75
387,302,2
387,345,3
387,396,0.2222222222222222222222222222
396,83,0.08
396,211,2
396,302,0.0625
396,345,0.5
396,387,0.2222222222222222222222222222
