38,162,0.6462406251802890913381563748
38,368,2.584962500721156365352625499
70,159,2.584962500721156365352625499
70,243,0.2872180556356840405947361666
70,387,0.6462406251802890913381563748
156,412,2.584962500721156365352625499
156,413,2.584962500721156365352625499
159,70,2.584962500721156365352625499
159,243,0.6462406251802890913381563748
159,387,2.584962500721156365352625499
162,38,0.6462406251802890913381563748
162,368,2.584962500721156365352625499
243,70,0.2872180556356840405947361666
243,159,0.6462406251802890913381563748
243,387,2.584962500721156365352625499
368,38,2.584962500721156365352625499
368,162,2.584962500721156365352625499
387,70,0.6462406251802890913381563748
387,159,2.584962500721156365352625499
387,243,2.584962500721156365352625499
412,156,2.584962500721156365352625499
412,413,0.6462406251802890913381563748
413,156,2.584962500721156365352625499
413,412,0.6462406251802890913381563748
