65,197,2.584962500721156365352625499
65,253,2.584962500721156365352625499
196,246,2.584962500721156365352625499
197,65,2.584962500721156365352625499
197,253,0.6462406251802890913381563748
246,196,2.584962500721156365352625499
253,65,2.584962500721156365352625499
253,197,0.6462406251802890913381563748
