78,240,2
78,263,2
78,288,0.5
101,154,2
101,405,2
154,101,2
154,405,0.5
240,78,2
240,263,0.5
240,288,0.2222222222222222222222222222
263,78,2
263,240,0.5
263,288,2
288,78,0.5
288,240,0.2222222222222222222222222222
288,263,2
405,101,2
405,154,0.5
