79,156,0.25
79,336,1.111111111111111111111111111
79,345,1.111111111111111111111111111
156,79,0.25
156,336,1
156,345,1
336,79,1.111111111111111111111111111
336,156,1
336,345,0.25
345,79,1.111111111111111111111111111
345,156,1
345,336,0.25
