113,156,1
113,263,0.1111111111111111111111111111
113,309,0.0625
113,345,0.25
156,113,1
156,263,0.25
156,309,0.1111111111111111111111111111
156,345,1
263,113,0.1111111111111111111111111111
263,156,0.25
263,309,1
263,345,1
309,113,0.0625
309,156,0.1111111111111111111111111111
309,263,1
309,345,0.25
345,113,0.25
345,156,1
345,263,1
345,309,0.25
