4,196,2.584962500721156365352625499
4,327,0.6462406251802890913381563748
28,345,2.584962500721156365352625499
196,4,2.584962500721156365352625499
196,327,2.584962500721156365352625499
327,4,0.6462406251802890913381563748
327,196,2.584962500721156365352625499
345,28,2.584962500721156365352625499
