109,282,0.1111111111111111111111111111
109,302,0.5
109,412,2.5
156,282,1
282,109,0.1111111111111111111111111111
282,156,1
282,302,0.04
282,412,1.25
302,109,0.5
302,282,0.04
302,412,0.3472222222222222222222222222
412,109,2.5
412,282,1.25
412,302,0.3472222222222222222222222222
