4,339,3.169925001442312570533925807
40,72,3.169925001442312570533925807
40,151,3.169925001442312570533925807
72,40,3.169925001442312570533925807
129,165,1.042481250360578182676312750
129,218,4.169925001442312730705250998
151,40,3.169925001442312570533925807
165,129,1.042481250360578182676312750
165,218,4.169925001442312730705250998
189,229,4.169925001442312730705250998
218,129,4.169925001442312730705250998
218,165,4.169925001442312730705250998
229,189,4.169925001442312730705250998
339,4,3.169925001442312570533925807
