8,189,2.584962500721156365352625499
131,327,0.6462406251802890913381563748
189,8,2.584962500721156365352625499
283,310,2.584962500721156365352625499
310,283,2.584962500721156365352625499
327,131,0.6462406251802890913381563748
