4,106,0.2222222222222222222222222222
4,211,2.5
4,218,2.125
4,229,0.125
4,339,0.58
4,342,2.5
8,199,2
106,4,0.2222222222222222222222222222
106,211,0.125
106,218,0.5
106,229,2
106,339,2
106,342,0.08
199,8,2
211,4,2.5
211,106,0.125
211,218,0.5
211,229,0.08
211,339,0.2222222222222222222222222222
211,342,2
218,4,2.125
218,106,0.5
218,211,0.5
218,229,0.2222222222222222222222222222
218,339,2
218,342,0.2222222222222222222222222222
229,4,0.125
229,106,2
229,211,0.08
229,218,0.2222222222222222222222222222
229,339,0.5
339,4,0.58
339,106,2
339,211,0.2222222222222222222222222222
339,218,2
339,229,0.5
339,342,0.125
342,4,2.5
342,106,0.08
342,211,2
342,218,0.2222222222222222222222222222
342,339,0.125
