99,154,0.0625
99,165,1
99,189,0.04
99,205,0.1111111111111111111111111111
154,99,0.0625
154,165,0.1111111111111111111111111111
154,189,1
154,205,1
165,99,1
165,154,0.1111111111111111111111111111
165,189,0.0625
165,205,0.25
189,99,0.04
189,154,1
189,165,0.0625
189,205,0.25
205,99,0.1111111111111111111111111111
205,154,1
205,165,0.25
205,189,0.25
