101,159,0.04
101,168,0.0625
101,283,1
101,331,0.25
101,387,0.1111111111111111111111111111
159,101,0.04
159,168,1
159,283,0.0625
159,331,0.1111111111111111111111111111
159,387,0.25
168,101,0.0625
168,159,1
168,283,0.1111111111111111111111111111
168,331,0.25
168,387,1
283,101,1
283,159,0.0625
283,168,0.1111111111111111111111111111
283,331,1
283,387,0.25
331,101,0.25
331,159,0.1111111111111111111111111111
331,168,0.25
331,283,1
331,387,1
387,101,0.1111111111111111111111111111
387,159,0.25
387,168,1
387,283,0.25
387,331,1
