35,342,2.736965594166206406832613229
150,151,3.321928094887362291671263155
150,232,1.080482023721840693046309682
151,150,3.321928094887362291671263155
151,232,3.321928094887362291671263155
159,166,3.321928094887362291671263155
159,342,3.421206992707758008540766536
166,159,3.321928094887362291671263155
166,342,2.736965594166206406832613229
232,150,1.080482023721840693046309682
232,151,3.321928094887362291671263155
275,374,4.321928094887362772185238728
334,368,3.321928094887362291671263155
342,35,2.736965594166206406832613229
342,159,3.421206992707758008540766536
342,166,2.736965594166206406832613229
368,334,3.321928094887362291671263155
368,412,3.321928094887362291671263155
374,275,4.321928094887362772185238728
412,368,3.321928094887362291671263155
