34,52,0.353759374819710928683259274
34,65,0.1572263888087604127481152329
34,87,0.0884398437049277321708148185
34,177,1.415037499278843714733037096
34,197,0.353759374819710928683259274
34,232,1.415037499278843714733037096
34,254,1.415037499278843714733037096
34,366,1.415037499278843714733037096
52,34,0.353759374819710928683259274
52,65,3
52,87,0.75
52,254,3
65,34,0.1572263888087604127481152329
65,52,3
65,87,3
65,254,0.75
87,34,0.0884398437049277321708148185
87,52,0.75
87,65,3
87,254,0.3333333333333333333333333333
177,34,1.415037499278843714733037096
197,34,0.353759374819710928683259274
197,232,3
197,366,0.3333333333333333333333333333
232,34,1.415037499278843714733037096
232,197,3
232,366,0.75
254,34,1.415037499278843714733037096
254,52,3
254,65,0.75
254,87,0.3333333333333333333333333333
366,34,1.415037499278843714733037096
366,197,0.3333333333333333333333333333
366,232,0.75
