32,150,0.2222222222222222222222222222
32,196,0.75
32,197,3
65,243,3
129,262,3
150,32,0.2222222222222222222222222222
150,196,2
150,197,0.5
196,32,0.75
196,150,2
196,197,3
197,32,3
197,150,0.5
197,196,3
243,65,3
262,129,3
