100,165,0.6462406251802890913381563748
100,189,1.584962500721156205181300308
100,197,2.584962500721156365352625499
165,100,0.6462406251802890913381563748
165,189,1.584962500721156205181300308
165,197,0.2872180556356840405947361666
189,100,1.584962500721156205181300308
189,165,1.584962500721156205181300308
189,197,0.396240625180289051295325077
197,100,2.584962500721156365352625499
197,165,0.2872180556356840405947361666
197,189,0.396240625180289051295325077
