87,129,0.25
87,248,1
87,341,1.25
87,358,0.1111111111111111111111111111
87,384,0.0625
87,396,0.04
129,87,0.25
129,248,1
129,341,0.1736111111111111111111111111
129,358,0.04
229,231,1
229,341,0.04
229,358,0.0625
229,384,0.1111111111111111111111111111
229,396,0.25
231,229,1
231,341,0.1025
231,358,0.1111111111111111111111111111
231,384,0.25
231,396,1
248,87,1
248,129,1
248,341,0.3611111111111111111111111111
248,358,0.0625
248,384,0.04
341,87,1.25
341,129,0.1736111111111111111111111111
341,229,0.04
341,231,0.1025
341,248,0.3611111111111111111111111111
341,358,1.25
341,384,0.3611111111111111111111111111
341,396,0.1736111111111111111111111111
358,87,0.1111111111111111111111111111
358,129,0.04
358,229,0.0625
358,231,0.1111111111111111111111111111
358,248,0.0625
358,341,1.25
358,384,1
358,396,0.25
384,87,0.0625
384,229,0.1111111111111111111111111111
384,231,0.25
384,248,0.04
384,341,0.3611111111111111111111111111
384,358,1
384,396,1
396,87,0.04
396,229,0.25
396,231,1
396,341,0.1736111111111111111111111111
396,358,0.25
396,384,1
