5,34,2.807354922057604255881316894
34,5,2.807354922057604255881316894
34,165,3.509193652572005319851646118
34,368,3.509193652572005319851646118
67,243,3.807354922057604095709991703
70,159,3.807354922057604095709991703
159,70,3.807354922057604095709991703
165,34,3.509193652572005319851646118
165,368,3.807354922057604095709991703
243,67,3.807354922057604095709991703
368,34,3.509193652572005319851646118
368,165,3.807354922057604095709991703
