57,65,0.0625
57,79,1
57,159,0.04
57,229,0.25
57,332,0.1111111111111111111111111111
65,57,0.0625
65,79,0.1111111111111111111111111111
65,101,0.1111111111111111111111111111
65,159,1
65,189,0.25
65,229,0.25
65,332,1
79,57,1
79,65,0.1111111111111111111111111111
79,159,0.0625
79,189,0.04
79,229,1
79,332,0.25
101,65,0.1111111111111111111111111111
101,159,0.25
101,189,1
101,229,0.04
101,332,0.0625
159,57,0.04
159,65,1
159,79,0.0625
159,101,0.25
159,189,1
159,229,0.1111111111111111111111111111
159,332,0.25
189,65,0.25
189,79,0.04
189,101,1
189,159,1
189,229,0.0625
189,332,0.1111111111111111111111111111
229,57,0.25
229,65,0.25
229,79,1
229,101,0.04
229,159,0.1111111111111111111111111111
229,189,0.0625
229,332,1
332,57,0.1111111111111111111111111111
332,65,1
332,79,0.25
332,101,0.0625
332,159,0.25
332,189,0.1111111111111111111111111111
332,229,1
