87,101,3.584962500721156205181300308
87,246,0.896240625180289051295325077
101,87,3.584962500721156205181300308
101,246,3.584962500721156205181300308
246,87,0.896240625180289051295325077
246,101,3.584962500721156205181300308
250,319,3.584962500721156205181300308
319,250,3.584962500721156205181300308
