65,165,2
65,189,0.1111111111111111111111111111
65,197,2
159,189,1
165,65,2
165,189,0.25
165,197,0.5
189,65,0.1111111111111111111111111111
189,159,1
189,165,0.25
189,197,0.0625
197,65,2
197,165,0.5
197,189,0.0625
