46,69,2.584962500721156365352625499
65,92,0.6462406251802890913381563748
65,123,2.584962500721156365352625499
65,150,0.6462406251802890913381563748
65,229,2.584962500721156365352625499
69,46,2.584962500721156365352625499
92,65,0.6462406251802890913381563748
92,123,2.584962500721156365352625499
92,150,0.1615601562950722728345390937
92,229,0.2872180556356840405947361666
123,65,2.584962500721156365352625499
123,92,2.584962500721156365352625499
123,150,0.2872180556356840405947361666
123,229,0.6462406251802890913381563748
150,65,0.6462406251802890913381563748
150,92,0.1615601562950722728345390937
150,123,0.2872180556356840405947361666
150,229,2.584962500721156365352625499
229,65,2.584962500721156365352625499
229,92,0.2872180556356840405947361666
229,123,0.6462406251802890913381563748
229,150,2.584962500721156365352625499
