61,67,2.5
61,240,0.7222222222222222222222222222
61,337,2.5
67,61,2.5
67,240,0.125
67,337,0.2222222222222222222222222222
240,61,0.7222222222222222222222222222
240,67,0.125
240,337,2
337,61,2.5
337,67,0.2222222222222222222222222222
337,240,2
