0,138,0.75
0,232,2
35,72,0.1875
35,147,0.75
35,150,0.12
35,159,0.3333333333333333333333333333
54,71,3
54,83,0.3333333333333333333333333333
54,185,3
54,232,0.5
54,279,0.75
71,54,3
71,83,0.1875
71,185,0.75
71,232,2
71,279,0.3333333333333333333333333333
72,35,0.1875
72,147,0.75
72,150,3
72,159,3
83,54,0.3333333333333333333333333333
83,71,0.1875
83,185,0.75
83,232,0.08
83,279,3
138,0,0.75
138,232,2
147,35,0.75
147,72,0.75
147,150,0.3333333333333333333333333333
147,159,3
150,35,0.12
150,72,3
150,147,0.3333333333333333333333333333
150,159,0.75
159,35,0.3333333333333333333333333333
159,72,3
159,147,3
159,150,0.75
185,54,3
185,71,0.75
185,83,0.75
185,232,0.2222222222222222222222222222
185,279,3
232,0,2
232,54,0.5
232,71,2
232,83,0.08
232,138,2
232,185,0.2222222222222222222222222222
232,279,0.125
279,54,0.75
279,71,0.3333333333333333333333333333
279,83,3
279,185,3
279,232,0.125
