46,168,0.2222222222222222222222222222
46,288,2
46,399,0.5
80,127,2
80,240,2
127,80,2
127,240,0.5
168,46,0.2222222222222222222222222222
168,288,0.5
168,399,2
240,80,2
240,127,0.5
288,46,2
288,168,0.5
288,399,2
399,46,0.5
399,168,2
399,288,2
