95,99,0.9334586808159731319328925414
95,106,2.584962500721156365352625499
95,253,2.584962500721156365352625499
99,95,0.9334586808159731319328925414
99,106,3.231203125901445456690781874
99,253,0.4487782119307563134292752603
106,95,2.584962500721156365352625499
106,99,3.231203125901445456690781874
106,253,0.6462406251802890913381563748
243,399,0.6462406251802890913381563748
253,95,2.584962500721156365352625499
253,99,0.4487782119307563134292752603
253,106,0.6462406251802890913381563748
399,243,0.6462406251802890913381563748
