19,116,0.3333333333333333333333333333
19,126,3
116,19,0.3333333333333333333333333333
116,126,0.75
126,19,3
126,116,0.75
185,246,2.08
185,283,0.75
185,302,0.3333333333333333333333333333
185,396,0.1875
243,246,2
243,390,3
246,185,2.08
246,243,2
246,283,2.222222222222222222222222222
246,302,0.5
246,390,0.5
246,396,2.222222222222222222222222222
283,185,0.75
283,246,2.222222222222222222222222222
283,302,3
283,396,0.75
302,185,0.3333333333333333333333333333
302,246,0.5
302,283,3
302,396,3
348,379,3
379,348,3
390,243,3
390,246,0.5
396,185,0.1875
396,246,2.222222222222222222222222222
396,283,0.75
396,302,3
