42,192,2.321928094887362451842588346
42,332,0.5804820237218406129606470865
70,135,0.8304820237218405729178157888
70,150,3.321928094887362291671263155
135,70,0.8304820237218405729178157888
135,150,3.321928094887362291671263155
150,70,3.321928094887362291671263155
150,135,3.321928094887362291671263155
159,332,2.579920105430402724269542607
192,42,2.321928094887362451842588346
192,243,2.321928094887362451842588346
192,332,1.321928094887362371756925751
192,364,0.2579920105430402724269542607
243,192,2.321928094887362451842588346
243,364,0.8304820237218405729178157888
332,42,0.5804820237218406129606470865
332,159,2.579920105430402724269542607
332,192,1.321928094887362371756925751
364,192,0.2579920105430402724269542607
364,243,0.8304820237218405729178157888
