19,197,3.321928094887362291671263155
30,196,3.321928094887362291671263155
91,283,2.321928094887362451842588346
91,338,0.5804820237218406129606470865
91,372,0.2579920105430402724269542607
159,288,3.321928094887362291671263155
196,30,3.321928094887362291671263155
197,19,3.321928094887362291671263155
283,91,2.321928094887362451842588346
283,338,3.321928094887362291671263155
283,372,0.8304820237218405729178157888
288,159,3.321928094887362291671263155
338,91,0.5804820237218406129606470865
338,283,3.321928094887362291671263155
338,372,3.321928094887362291671263155
372,91,0.2579920105430402724269542607
372,283,0.8304820237218405729178157888
372,338,3.321928094887362291671263155
