4,58,0.5
4,90,0.2222222222222222222222222222
4,189,0.125
4,197,2
58,4,0.5
58,90,3
58,189,0.75
58,197,3
90,4,0.2222222222222222222222222222
90,58,3
90,189,3
90,197,0.75
156,256,0.75
156,315,3
189,4,0.125
189,58,0.75
189,90,3
189,197,0.3333333333333333333333333333
197,4,2
197,58,3
197,90,0.75
197,189,0.3333333333333333333333333333
256,156,0.75
256,315,3
315,156,3
315,256,3
