19,126,3
19,137,0.3333333333333333333333333333
19,150,3
19,396,0.25
117,240,0.75
117,396,1
126,19,3
126,137,0.75
126,150,0.75
126,396,1
137,19,0.3333333333333333333333333333
137,126,0.75
137,150,0.1875
137,396,1
150,19,3
150,126,0.75
150,137,0.1875
150,396,0.1111111111111111111111111111
196,396,1
240,117,0.75
240,396,1
270,377,0.3333333333333333333333333333
270,395,0.75
270,396,1
377,270,0.3333333333333333333333333333
377,395,3
377,396,0.25
395,270,0.75
395,377,3
395,396,1
396,19,0.25
396,117,1
396,126,1
396,137,1
396,150,0.1111111111111111111111111111
396,196,1
396,240,1
396,270,1
396,377,0.25
396,395,1
