54,136,1
54,268,0.0625
54,402,0.1111111111111111111111111111
136,54,1
136,268,0.1111111111111111111111111111
136,402,0.25
268,54,0.0625
268,136,0.1111111111111111111111111111
268,402,1
402,54,0.1111111111111111111111111111
402,136,0.25
402,268,1
