67,159,0.8304820237218405729178157888
67,399,2.321928094887362451842588346
98,399,2.321928094887362451842588346
101,198,0.8304820237218405729178157888
101,270,0.1328771237954944916668505262
101,370,0.2076205059304601432294539472
159,67,0.8304820237218405729178157888
159,399,2.321928094887362451842588346
198,101,0.8304820237218405729178157888
198,270,0.3691031216541513657412514617
198,370,0.8304820237218405729178157888
270,101,0.1328771237954944916668505262
270,198,0.3691031216541513657412514617
270,370,3.321928094887362291671263155
370,101,0.2076205059304601432294539472
370,198,0.8304820237218405729178157888
370,270,3.321928094887362291671263155
399,67,2.321928094887362451842588346
399,98,2.321928094887362451842588346
399,159,2.321928094887362451842588346
