11,354,0.5
11,406,2
137,141,2
137,154,0.5
137,229,0.2222222222222222222222222222
141,137,2
141,154,2
141,229,0.5
154,137,0.5
154,141,2
154,229,2
229,137,0.2222222222222222222222222222
229,141,0.5
229,154,2
354,11,0.5
354,406,2
406,11,2
406,354,2
