27,101,0.75
27,109,3
27,123,0.1875
27,200,3
27,351,0.3333333333333333333333333333
101,27,0.75
101,109,0.3333333333333333333333333333
101,123,0.75
101,200,3
101,351,3
109,27,3
109,101,0.3333333333333333333333333333
109,123,0.12
109,200,0.75
109,351,0.1875
123,27,0.1875
123,101,0.75
123,109,0.12
123,200,0.3333333333333333333333333333
123,351,3
200,27,3
200,101,3
200,109,0.75
200,123,0.3333333333333333333333333333
200,351,0.75
201,332,3
332,201,3
351,27,0.3333333333333333333333333333
351,101,3
351,109,0.1875
351,123,3
351,200,0.75
