65,305,3.584962500721156205181300308
65,368,0.896240625180289051295325077
123,159,3.584962500721156205181300308
141,165,0.896240625180289051295325077
154,263,3.584962500721156205181300308
154,384,0.896240625180289051295325077
159,123,3.584962500721156205181300308
165,141,0.896240625180289051295325077
166,216,3.584962500721156205181300308
216,166,3.584962500721156205181300308
263,154,3.584962500721156205181300308
263,384,3.584962500721156205181300308
305,65,3.584962500721156205181300308
305,368,3.584962500721156205181300308
368,65,0.896240625180289051295325077
368,305,3.584962500721156205181300308
384,154,0.896240625180289051295325077
384,263,3.584962500721156205181300308
