36,58,1
36,86,0.25
36,243,0.25
36,351,1
58,36,1
58,86,0.1111111111111111111111111111
58,243,1
58,351,0.25
86,36,0.25
86,58,0.1111111111111111111111111111
86,243,0.0625
86,351,1
243,36,0.25
243,58,1
243,86,0.0625
243,351,0.1111111111111111111111111111
351,36,1
351,58,0.25
351,86,1
351,243,0.1111111111111111111111111111
