67,259,3.584962500721156205181300308
70,395,2.584962500721156365352625499
130,312,3.584962500721156205181300308
248,260,3.584962500721156205181300308
259,67,3.584962500721156205181300308
260,248,3.584962500721156205181300308
283,395,2.584962500721156365352625499
312,130,3.584962500721156205181300308
395,70,2.584962500721156365352625499
395,283,2.584962500721156365352625499
