38,65,0.2222222222222222222222222222
38,123,2
38,218,0.25
38,231,2
65,38,0.2222222222222222222222222222
65,123,0.125
65,218,1
65,231,0.5
123,38,2
123,65,0.125
123,218,0.1111111111111111111111111111
123,231,0.5
150,213,2
150,218,1
213,150,2
213,218,0.25
218,38,0.25
218,65,1
218,123,0.1111111111111111111111111111
218,150,1
218,213,0.25
218,231,1
231,38,2
231,65,0.5
231,123,0.5
231,218,1
