42,78,0.6462406251802890913381563748
42,154,2.584962500721156365352625499
78,42,0.6462406251802890913381563748
78,154,2.584962500721156365352625499
102,150,0.6462406251802890913381563748
102,329,2.584962500721156365352625499
150,102,0.6462406251802890913381563748
150,329,2.584962500721156365352625499
154,42,2.584962500721156365352625499
154,78,2.584962500721156365352625499
329,102,2.584962500721156365352625499
329,150,2.584962500721156365352625499
