65,87,0.5
65,136,0.2222222222222222222222222222
65,196,2
72,150,2
72,162,2
87,65,0.5
87,136,2
87,196,2
136,65,0.2222222222222222222222222222
136,87,2
136,196,0.5
150,72,2
150,162,0.5
162,72,2
162,150,0.5
196,65,2
196,87,2
196,136,0.5
