86,166,0.25
86,183,0.0625
86,243,0.1111111111111111111111111111
86,324,1
86,351,0.04
166,86,0.25
166,183,0.25
166,243,1
166,305,0.0625
166,324,1
166,351,0.1111111111111111111111111111
183,86,0.0625
183,166,0.25
183,243,1
183,305,0.25
183,324,0.1111111111111111111111111111
183,351,1
243,86,0.1111111111111111111111111111
243,166,1
243,183,1
243,305,0.1111111111111111111111111111
243,324,0.25
243,351,0.25
305,166,0.0625
305,183,0.25
305,243,0.1111111111111111111111111111
305,324,0.04
305,351,1
324,86,1
324,166,1
324,183,0.1111111111111111111111111111
324,243,0.25
324,305,0.04
324,351,0.0625
351,86,0.04
351,166,0.1111111111111111111111111111
351,183,1
351,243,0.25
351,305,1
351,324,0.0625
