67,126,2.584962500721156365352625499
67,156,0.2872180556356840405947361666
67,229,0.6462406251802890913381563748
71,101,2.584962500721156365352625499
101,71,2.584962500721156365352625499
113,395,2.584962500721156365352625499
126,67,2.584962500721156365352625499
126,156,0.6462406251802890913381563748
126,229,2.584962500721156365352625499
156,67,0.2872180556356840405947361666
156,126,0.6462406251802890913381563748
156,229,2.584962500721156365352625499
229,67,0.6462406251802890913381563748
229,126,2.584962500721156365352625499
229,156,2.584962500721156365352625499
395,113,2.584962500721156365352625499
