8,132,3.321928094887362291671263155
8,184,3.321928094887362291671263155
8,189,0.8304820237218405729178157888
132,8,3.321928094887362291671263155
132,184,0.8304820237218405729178157888
132,189,0.3691031216541513657412514617
184,8,3.321928094887362291671263155
184,132,0.8304820237218405729178157888
184,189,3.321928094887362291671263155
189,8,0.8304820237218405729178157888
189,132,0.3691031216541513657412514617
189,184,3.321928094887362291671263155
304,332,0.8304820237218405729178157888
304,412,3.321928094887362291671263155
332,304,0.8304820237218405729178157888
332,412,3.321928094887362291671263155
412,304,3.321928094887362291671263155
412,332,3.321928094887362291671263155
