28,78,3.807354922057604095709991703
65,123,2.222392421336448050700016586
78,28,3.807354922057604095709991703
123,65,2.222392421336448050700016586
155,232,0.9518387305144010239274979258
155,332,3.807354922057604095709991703
232,155,0.9518387305144010239274979258
232,332,3.807354922057604095709991703
332,155,3.807354922057604095709991703
332,232,3.807354922057604095709991703
