7,150,3.321928094887362291671263155
19,87,0.3691031216541513657412514617
19,265,0.8304820237218405729178157888
62,65,3.321928094887362291671263155
62,412,0.5804820237218406129606470865
65,62,3.321928094887362291671263155
65,412,2.321928094887362451842588346
87,19,0.3691031216541513657412514617
87,265,3.321928094887362291671263155
150,7,3.321928094887362291671263155
260,319,3.321928094887362291671263155
260,412,2.321928094887362451842588346
265,19,0.8304820237218405729178157888
265,87,3.321928094887362291671263155
266,384,3.321928094887362291671263155
319,260,3.321928094887362291671263155
319,412,0.5804820237218406129606470865
384,266,3.321928094887362291671263155
412,62,0.5804820237218406129606470865
412,65,2.321928094887362451842588346
412,260,2.321928094887362451842588346
412,319,0.5804820237218406129606470865
