133,156,0.25
133,165,1
133,231,1
133,405,0.1111111111111111111111111111
133,412,0.25
156,133,0.25
156,165,1
156,231,0.1111111111111111111111111111
156,405,1
156,412,0.0625
165,133,1
165,156,1
165,231,0.25
165,405,0.25
165,412,0.1111111111111111111111111111
231,133,1
231,156,0.1111111111111111111111111111
231,165,0.25
231,405,0.0625
231,412,1
405,133,0.1111111111111111111111111111
405,156,1
405,165,0.25
405,231,0.0625
405,412,0.04
412,133,0.25
412,156,0.0625
412,165,0.1111111111111111111111111111
412,231,1
412,405,0.04
