65,87,0.2222222222222222222222222222
65,159,0.5
65,161,0.125
65,197,2
65,270,1
87,65,0.2222222222222222222222222222
87,159,2
87,161,2
87,197,0.5
87,270,0.0625
159,65,0.5
159,87,2
159,161,0.5
159,197,2
159,270,0.1111111111111111111111111111
161,65,0.125
161,87,2
161,159,0.5
161,197,0.2222222222222222222222222222
161,270,0.04
197,65,2
197,87,0.5
197,159,2
197,161,0.2222222222222222222222222222
197,270,0.25
270,65,1
270,87,0.0625
270,159,0.1111111111111111111111111111
270,161,0.04
270,197,0.25
270,274,1.111111111111111111111111111
274,270,1.111111111111111111111111111
