36,282,2.321928094887362451842588346
36,283,3.321928094887362291671263155
38,282,2.321928094887362451842588346
282,36,2.321928094887362451842588346
282,38,2.321928094887362451842588346
282,283,0.5804820237218406129606470865
283,36,3.321928094887362291671263155
283,282,0.5804820237218406129606470865
302,319,3.321928094887362291671263155
319,302,3.321928094887362291671263155
