150,161,0.0625
150,260,0.25
150,270,1
150,283,0.1111111111111111111111111111
150,387,0.25
150,399,1
161,150,0.0625
161,260,0.25
161,270,0.04
161,283,1
161,399,0.1111111111111111111111111111
260,150,0.25
260,161,0.25
260,270,0.1111111111111111111111111111
260,283,1
260,387,0.0625
260,399,1
270,150,1
270,161,0.04
270,260,0.1111111111111111111111111111
270,283,0.0625
270,387,1
270,399,0.25
283,150,0.1111111111111111111111111111
283,161,1
283,260,1
283,270,0.0625
283,387,0.04
283,399,0.25
387,150,0.25
387,260,0.0625
387,270,1
387,283,0.04
387,399,0.1111111111111111111111111111
399,150,1
399,161,0.1111111111111111111111111111
399,260,1
399,270,0.25
399,283,0.25
399,387,0.1111111111111111111111111111
