54,196,0.5
54,396,0.7222222222222222222222222222
54,409,2
90,159,0.5
90,399,2
159,90,0.5
159,399,2
196,54,0.5
196,396,2.125
196,409,2.222222222222222222222222222
396,54,0.7222222222222222222222222222
396,196,2.125
396,409,2.847222222222222222222222222
399,90,2
399,159,2
409,54,2
409,196,2.222222222222222222222222222
409,396,2.847222222222222222222222222
