141,154,3.321928094887362291671263155
141,172,0.8304820237218405729178157888
141,266,0.3691031216541513657412514617
154,141,3.321928094887362291671263155
154,172,3.321928094887362291671263155
154,266,0.8304820237218405729178157888
172,141,0.8304820237218405729178157888
172,154,3.321928094887362291671263155
172,266,3.321928094887362291671263155
198,211,2.321928094887362451842588346
211,198,2.321928094887362451842588346
266,141,0.3691031216541513657412514617
266,154,0.8304820237218405729178157888
266,172,3.321928094887362291671263155
