65,86,0.6462406251802890913381563748
65,87,2.688361000750002619966730519
65,243,2.872180556356840405947361666
65,266,2.872180556356840405947361666
86,65,0.6462406251802890913381563748
86,87,0.2872180556356840405947361666
86,243,2.584962500721156365352625499
86,266,2.584962500721156365352625499
87,65,2.688361000750002619966730519
87,86,0.2872180556356840405947361666
87,243,0.1615601562950722728345390937
87,266,0.6462406251802890913381563748
200,342,2.584962500721156365352625499
243,65,2.872180556356840405947361666
243,86,2.584962500721156365352625499
243,87,0.1615601562950722728345390937
243,266,0.6462406251802890913381563748
266,65,2.872180556356840405947361666
266,86,2.584962500721156365352625499
266,87,0.6462406251802890913381563748
266,243,0.6462406251802890913381563748
342,200,2.584962500721156365352625499
