4,36,2
36,4,2
150,223,0.2222222222222222222222222222
150,302,2
150,372,2
223,150,0.2222222222222222222222222222
223,302,0.125
223,372,0.5
302,150,2
302,223,0.125
302,372,0.5
372,150,2
372,223,0.5
372,302,0.5
