5,58,0.125
5,159,0.3333333333333333333333333333
5,301,0.75
58,5,0.125
58,159,2
58,196,0.5
58,301,0.5
58,368,2
65,96,3
96,65,3
159,5,0.3333333333333333333333333333
159,58,2
159,301,3
196,58,0.5
196,368,3
253,332,3
301,5,0.75
301,58,0.5
301,159,3
332,253,3
368,58,2
368,196,3
