34,270,2.807354922057604255881316894
101,288,0.9518387305144010239274979258
101,389,3.807354922057604095709991703
270,34,2.807354922057604255881316894
270,402,2.807354922057604255881316894
288,101,0.9518387305144010239274979258
288,389,3.807354922057604095709991703
389,101,3.807354922057604095709991703
389,288,3.807354922057604095709991703
402,270,2.807354922057604255881316894
