32,65,3
38,65,3
38,71,0.9999999999999999599571687022
38,327,3.999999999999999839828674809
38,345,0.9999999999999999599571687022
58,106,3
58,192,3
65,32,3
65,38,3
65,71,0.3333333333333333333333333333
65,327,0.75
65,345,3
71,38,0.9999999999999999599571687022
71,65,0.3333333333333333333333333333
71,327,3.999999999999999839828674809
71,345,0.2499999999999999899892921756
106,58,3
106,192,0.5
192,58,3
192,106,0.5
327,38,3.999999999999999839828674809
327,65,0.75
327,71,3.999999999999999839828674809
327,345,0.4444444444444444266476305343
345,38,0.9999999999999999599571687022
345,65,3
345,71,0.2499999999999999899892921756
345,327,0.4444444444444444266476305343
